{
    "KPackageStructure": "KPackage/GenericQML",
    "KPlugin": {
        "Authors": [
            {
                "Email": "devin@kde.org",
                "Name": "Devin Lin",
                "Name[ar]": "ديفين لين",
                "Name[az]": "Devin Lin",
                "Name[ca@valencia]": "Devin Lin",
                "Name[ca]": "Devin Lin",
                "Name[cs]": "Devin Lin",
                "Name[de]": "Devin Lin",
                "Name[en_GB]": "Devin Lin",
                "Name[eo]": "Devin Lin",
                "Name[es]": "Devin Lin",
                "Name[eu]": "Devin Lin",
                "Name[fi]": "Devin Lin",
                "Name[fr]": "Devin Lin",
                "Name[gl]": "Devin Lin",
                "Name[hu]": "Devin Lin",
                "Name[ia]": "Devin Lin",
                "Name[is]": "Devin Lin",
                "Name[it]": "Devin Lin",
                "Name[ka]": "Devin Lin",
                "Name[ko]": "Devin Lin",
                "Name[nl]": "Devin Lin",
                "Name[nn]": "Devin Lin",
                "Name[pa]": "ਡੇਵਿਨ ਲਿਨ",
                "Name[pl]": "Devin Lin",
                "Name[pt]": "Devin Lin",
                "Name[pt_BR]": "Devin Lin",
                "Name[ru]": "Devin Lin",
                "Name[sk]": "Devin Lin",
                "Name[sl]": "Devin Lin",
                "Name[sv]": "Devin Lin",
                "Name[tr]": "Devin Lin",
                "Name[uk]": "Devin Lin",
                "Name[x-test]": "xxDevin Linxx",
                "Name[zh_CN]": "Devin Lin",
                "Name[zh_TW]": "Devin Lin"
            }
        ],
        "Description": "WiFi initialstart module for Plasma Mobile",
        "Description[ca@valencia]": "Mòdul de començament inicial de Wi-Fi per a Plasma Mobile",
        "Description[ca]": "Mòdul de començament inicial de Wi-Fi per al Plasma Mobile",
        "Description[en_GB]": "WiFi initial start module for Plasma Mobile",
        "Description[eo]": "WiFi-komenca startmodulo por Plasma Mobile",
        "Description[es]": "Módulo de wifi del primer inicio para Plasma Mobile",
        "Description[eu]": "Wi-Fiaren hasierako abio modulua Plasma Mugikorrerako",
        "Description[fi]": "Langattoman verkon pika-aloitusmoduuli Plasma Mobileen",
        "Description[fr]": "Module « initialstart » de Wifi pour Plasma Mobile",
        "Description[gl]": "Módulo de inicio de rede sen fíos para Plasma Mobile.",
        "Description[hu]": "WiFi elsőindítás modul a Plasma Mobile-hoz",
        "Description[ia]": "Modulo initialstart de WiFi per Plasma Mobile",
        "Description[is]": "WiFi initialstart-eining fyrir Plasma Mobile",
        "Description[it]": "Modulo di avvio iniziale WiFi per Plasma Mobile",
        "Description[ka]": "Plasma Mobile-ის WiFi-ის სწრაფი გაშვების მოდული",
        "Description[ko]": "Plasma 모바일의 Wi-Fi 첫 시작 모듈",
        "Description[nl]": "Initiële startmodule voor WiFi voor Plasma Mobile",
        "Description[pa]": "ਪਲਾਜ਼ਮਾ ਮੋਬਾਈਲ ਲਈ ਵਾਈ-ਫ਼ਾਈ ਸ਼ੁਰੂਆਤੀ ਮੋਡੀਊਲ",
        "Description[pl]": "Człon początków w Przenośnej Plazmie",
        "Description[sk]": "Počiatočný spúšťací modul WiFi pre Plasma Mobile",
        "Description[sl]": "Modul začetnega zagona Wi-Fi za Plasma Mobile",
        "Description[tr]": "Plasma Cep için Wi-Fi başlangıç modülü",
        "Description[uk]": "Модуль WiFi початкового запуску для мобільної Плазми",
        "Description[x-test]": "xxWiFi initialstart module for Plasma Mobilexx",
        "Description[zh_CN]": "Plasma Mobile 的 WiFi 模块初始化",
        "Id": "org.kde.plasma.mobileinitialstart.wifi",
        "License": "GPL-2.0+",
        "Name": "WiFi",
        "Name[ar]": "الشبكة اللاسلكيّ",
        "Name[ast]": "Wi-Fi",
        "Name[ca@valencia]": "Wi-Fi",
        "Name[ca]": "Wi-Fi",
        "Name[de]": "Wi-Fi",
        "Name[en_GB]": "WiFi",
        "Name[eo]": "WiFi",
        "Name[es]": "Wifi",
        "Name[eu]": "Wi-Fi",
        "Name[fi]": "Langaton verkko",
        "Name[fr]": "WiFi",
        "Name[gl]": "Rede sen fíos",
        "Name[hu]": "WiFi",
        "Name[ia]": "WiFi",
        "Name[is]": "Wifi",
        "Name[it]": "WiFi",
        "Name[ka]": "WiFi",
        "Name[ko]": "Wi-Fi",
        "Name[nl]": "WiFi",
        "Name[nn]": "Wi-Fi",
        "Name[pa]": "ਵਾਈ-ਫਾਈ",
        "Name[pl]": "WiFi",
        "Name[sk]": "WiFi",
        "Name[sl]": "WiFi",
        "Name[tr]": "Wi-Fi",
        "Name[uk]": "WiFi",
        "Name[x-test]": "xxWiFixx",
        "Name[zh_CN]": "WiFi",
        "Name[zh_TW]": "WiFi",
        "ServiceTypes": [
            "KPackage/GenericQML"
        ],
        "Website": "https://kde.org"
    }
}
