{
    "KPackageStructure": "KPackage/GenericQML",
    "KPlugin": {
        "Authors": [
            {
                "Email": "devin@kde.org",
                "Name": "Devin Lin",
                "Name[ar]": "ديفين لين",
                "Name[az]": "Devin Lin",
                "Name[ca@valencia]": "Devin Lin",
                "Name[ca]": "Devin Lin",
                "Name[cs]": "Devin Lin",
                "Name[de]": "Devin Lin",
                "Name[en_GB]": "Devin Lin",
                "Name[eo]": "Devin Lin",
                "Name[es]": "Devin Lin",
                "Name[eu]": "Devin Lin",
                "Name[fi]": "Devin Lin",
                "Name[fr]": "Devin Lin",
                "Name[gl]": "Devin Lin",
                "Name[hu]": "Devin Lin",
                "Name[ia]": "Devin Lin",
                "Name[is]": "Devin Lin",
                "Name[it]": "Devin Lin",
                "Name[ka]": "Devin Lin",
                "Name[ko]": "Devin Lin",
                "Name[nl]": "Devin Lin",
                "Name[nn]": "Devin Lin",
                "Name[pa]": "ਡੇਵਿਨ ਲਿਨ",
                "Name[pl]": "Devin Lin",
                "Name[pt]": "Devin Lin",
                "Name[pt_BR]": "Devin Lin",
                "Name[ru]": "Devin Lin",
                "Name[sk]": "Devin Lin",
                "Name[sl]": "Devin Lin",
                "Name[sv]": "Devin Lin",
                "Name[tr]": "Devin Lin",
                "Name[uk]": "Devin Lin",
                "Name[x-test]": "xxDevin Linxx",
                "Name[zh_CN]": "Devin Lin",
                "Name[zh_TW]": "Devin Lin"
            }
        ],
        "Description": "Time initialstart module for Plasma Mobile",
        "Description[ca@valencia]": "Mòdul de començament inicial de l'hora per a Plasma Mobile",
        "Description[ca]": "Mòdul de començament inicial de l'hora per al Plasma Mobile",
        "Description[en_GB]": "Time initial start module for Plasma Mobile",
        "Description[eo]": "Tempo komenca startmodulo por Plasma Mobile",
        "Description[es]": "Módulo de hora del primer inicio para Plasma Mobile",
        "Description[eu]": "Orduaren hasierako abio modulua Plasma Mugikorrerako",
        "Description[fi]": "Ajan pika-aloitusmoduuli Plasma Mobileen",
        "Description[fr]": "Module « initialstart » d'heure pour Plasma Mobile",
        "Description[gl]": "Módulo de inicio de hora para Plasma Mobile.",
        "Description[hu]": "Idő elsőindítás modul a Plasma Mobile-hoz",
        "Description[ia]": "Modulo initialstar de tempore per Plasma Mobile",
        "Description[is]": "Time initialstart-eining fyrir Plasma Mobile",
        "Description[it]": "Modulo di avvio iniziale dell'orario per Plasma Mobile",
        "Description[ka]": "Plasma Mobile-ის საწყისი გაშვების მოდული",
        "Description[ko]": "Plasma 모바일의 시간 첫 시작 모듈",
        "Description[nl]": "Tijd van initiële startmodule voor Plasma Mobile",
        "Description[pa]": "ਪਲਾਜ਼ਮਾ ਮੋਬਾਈਲ ਲਈ ਸਮਾਂ ਸ਼ੁਰੂਆਤੀ ਮੋਡੀਊਲ",
        "Description[pl]": "Człon czasu początków w Przenośnej Plazmie",
        "Description[sk]": "Časový počiatočný spúšťací modul pre Plasma Mobile",
        "Description[sl]": "Čas začetnega zagona za Plasma Mobile",
        "Description[tr]": "Plasma Cep için zaman ayarları başlangıç modülü",
        "Description[uk]": "Модуль часу початкового запуску для мобільної Плазми",
        "Description[x-test]": "xxTime initialstart module for Plasma Mobilexx",
        "Description[zh_CN]": "Plasma Mobile 的时间模块初始化",
        "Id": "org.kde.plasma.mobileinitialstart.time",
        "License": "GPL-2.0+",
        "Name": "Time",
        "Name[ar]": "الوقت",
        "Name[ca@valencia]": "Hora",
        "Name[ca]": "Hora",
        "Name[cs]": "Čas",
        "Name[en_GB]": "Time",
        "Name[eo]": "Tempo",
        "Name[es]": "Hora",
        "Name[eu]": "Ordua",
        "Name[fi]": "Aika",
        "Name[fr]": "Heure",
        "Name[gl]": "Hora",
        "Name[hu]": "Idő",
        "Name[ia]": "Tempore",
        "Name[is]": "Tími",
        "Name[it]": "Orario",
        "Name[ka]": "დრო",
        "Name[ko]": "시간",
        "Name[nl]": "Tijd",
        "Name[nn]": "Tid",
        "Name[pa]": "ਸਮਾਂ",
        "Name[pl]": "Czas",
        "Name[sk]": "Čas",
        "Name[sl]": "Čas",
        "Name[tr]": "Zaman",
        "Name[uk]": "Час",
        "Name[x-test]": "xxTimexx",
        "Name[zh_CN]": "时间",
        "Name[zh_TW]": "時間",
        "ServiceTypes": [
            "KPackage/GenericQML"
        ],
        "Website": "https://kde.org"
    }
}
