{
    "KPackageStructure": "KPackage/GenericQML",
    "KPlugin": {
        "Authors": [
            {
                "Email": "devin@kde.org",
                "Name": "Devin Lin",
                "Name[ar]": "ديفين لين",
                "Name[az]": "Devin Lin",
                "Name[ca@valencia]": "Devin Lin",
                "Name[ca]": "Devin Lin",
                "Name[cs]": "Devin Lin",
                "Name[de]": "Devin Lin",
                "Name[en_GB]": "Devin Lin",
                "Name[eo]": "Devin Lin",
                "Name[es]": "Devin Lin",
                "Name[eu]": "Devin Lin",
                "Name[fi]": "Devin Lin",
                "Name[fr]": "Devin Lin",
                "Name[gl]": "Devin Lin",
                "Name[hu]": "Devin Lin",
                "Name[ia]": "Devin Lin",
                "Name[is]": "Devin Lin",
                "Name[it]": "Devin Lin",
                "Name[ka]": "Devin Lin",
                "Name[ko]": "Devin Lin",
                "Name[nl]": "Devin Lin",
                "Name[nn]": "Devin Lin",
                "Name[pa]": "ਡੇਵਿਨ ਲਿਨ",
                "Name[pl]": "Devin Lin",
                "Name[pt]": "Devin Lin",
                "Name[pt_BR]": "Devin Lin",
                "Name[ru]": "Devin Lin",
                "Name[sk]": "Devin Lin",
                "Name[sl]": "Devin Lin",
                "Name[sv]": "Devin Lin",
                "Name[tr]": "Devin Lin",
                "Name[uk]": "Devin Lin",
                "Name[x-test]": "xxDevin Linxx",
                "Name[zh_CN]": "Devin Lin",
                "Name[zh_TW]": "Devin Lin"
            }
        ],
        "Description": "Battery quick setting for Plasma Mobile",
        "Description[ca@valencia]": "Configuració ràpida de la bateria per a Plasma Mobile",
        "Description[ca]": "Configuració ràpida de la bateria per al Plasma Mobile",
        "Description[en_GB]": "Battery quick setting for Plasma Mobile",
        "Description[eo]": "Bateria rapida agordo por Plasma Mobile",
        "Description[es]": "Ajuste rápido de la batería para Plasma Mobile",
        "Description[eu]": "Bateriaren ezarpen azkarra Plasma Mugikorrerako",
        "Description[fi]": "Akun pika-asetus Plasma Mobileen",
        "Description[fr]": "Configuration rapide de la batterie pour Plasma Mobile",
        "Description[gl]": "Opción rápida de batería para Plasma Mobile.",
        "Description[hu]": "Akkumulátor gyorsbeállítása a Plasma Mobile-hoz",
        "Description[ia]": "Preferentia rapide de Batteria per Plasma Mobile",
        "Description[is]": "Flýtistilling rafhlöðu fyrir Plasma Mobile",
        "Description[it]": "Impostazione rapida della batteria per Plasma Mobile",
        "Description[ka]": "ელემენტის სწრაფი მორგების პარამეტრი Plasma Mobile-სთვის",
        "Description[ko]": "Plasma 모바일의 배터리 빠른 설정",
        "Description[nl]": "Snelle instelling van batterij voor Plasma Mobile",
        "Description[nn]": "Snøgginnstilling for batteri for Plasma Mobile",
        "Description[pa]": "ਪਲਾਜ਼ਮਾ ਮੋਬਾਈਲ ਲਈ ਬੈਟਰੀ ਫ਼ੌਰੀ ਸੈਟਿੰਗ",
        "Description[pl]": "Szybkie ustawienia baterii w Przenośnej Plazmie",
        "Description[pt]": "Configuração rápida da bateria do Plasma Mobile",
        "Description[pt_BR]": "Configurações rápidas da bateria para o Plasma Mobile",
        "Description[ru]": "Быстрая настройка батареи для Plasma Mobile",
        "Description[sk]": "Rýchle nastavenie batérie pre Plasma Mobile",
        "Description[sl]": "Hitre nastavitve baterije za Plasma Mobile",
        "Description[tr]": "Plasma Cep pil tez ayarı",
        "Description[uk]": "Швидке налаштовування акумулятора для Мобільної Плазми",
        "Description[x-test]": "xxBattery quick setting for Plasma Mobilexx",
        "Description[zh_CN]": "Plasma Mobile 的电池快捷设置",
        "Icon": "battery-full",
        "Id": "org.kde.plasma.quicksetting.battery",
        "License": "GPL-2.0+",
        "Name": "Battery",
        "Name[ar]": "البطارية",
        "Name[az]": "Batareya",
        "Name[ca@valencia]": "Bateria",
        "Name[ca]": "Bateria",
        "Name[cs]": "Baterie",
        "Name[de]": "Akku",
        "Name[en_GB]": "Battery",
        "Name[eo]": "Baterio",
        "Name[es]": "Batería",
        "Name[eu]": "Bateria",
        "Name[fi]": "Akku",
        "Name[fr]": "Batterie",
        "Name[gl]": "Batería",
        "Name[hu]": "Akkumulátor",
        "Name[ia]": "Batteria",
        "Name[is]": "Rafhlaða",
        "Name[it]": "Batteria",
        "Name[ka]": "ელემენტი",
        "Name[ko]": "배터리",
        "Name[nl]": "Batterij",
        "Name[nn]": "Batteri",
        "Name[pa]": "ਬੈਟਰੀ",
        "Name[pl]": "Bateria",
        "Name[pt]": "Bateria",
        "Name[pt_BR]": "Bateria",
        "Name[ro]": "Acumulator",
        "Name[ru]": "Батарея",
        "Name[sk]": "Batéria",
        "Name[sl]": "Baterija",
        "Name[sv]": "Batteri",
        "Name[ta]": "மின்கலம்",
        "Name[tr]": "Pil",
        "Name[uk]": "Акумулятор",
        "Name[x-test]": "xxBatteryxx",
        "Name[zh_CN]": "电池",
        "Name[zh_TW]": "電池",
        "Website": "https://kde.org"
    }
}
