{
    "KPackageStructure": "KPackage/GenericQML",
    "KPlugin": {
        "Authors": [
            {
                "Email": "devin@kde.org",
                "Name": "Devin Lin",
                "Name[ar]": "ديفين لين",
                "Name[az]": "Devin Lin",
                "Name[ca@valencia]": "Devin Lin",
                "Name[ca]": "Devin Lin",
                "Name[cs]": "Devin Lin",
                "Name[de]": "Devin Lin",
                "Name[en_GB]": "Devin Lin",
                "Name[eo]": "Devin Lin",
                "Name[es]": "Devin Lin",
                "Name[eu]": "Devin Lin",
                "Name[fi]": "Devin Lin",
                "Name[fr]": "Devin Lin",
                "Name[gl]": "Devin Lin",
                "Name[hu]": "Devin Lin",
                "Name[ia]": "Devin Lin",
                "Name[is]": "Devin Lin",
                "Name[it]": "Devin Lin",
                "Name[ka]": "Devin Lin",
                "Name[ko]": "Devin Lin",
                "Name[nl]": "Devin Lin",
                "Name[nn]": "Devin Lin",
                "Name[pa]": "ਡੇਵਿਨ ਲਿਨ",
                "Name[pl]": "Devin Lin",
                "Name[pt]": "Devin Lin",
                "Name[pt_BR]": "Devin Lin",
                "Name[ru]": "Devin Lin",
                "Name[sk]": "Devin Lin",
                "Name[sl]": "Devin Lin",
                "Name[sv]": "Devin Lin",
                "Name[tr]": "Devin Lin",
                "Name[uk]": "Devin Lin",
                "Name[x-test]": "xxDevin Linxx",
                "Name[zh_CN]": "Devin Lin",
                "Name[zh_TW]": "Devin Lin"
            }
        ],
        "Description": "Quick setting to toggle docked mode for Plasma Mobile",
        "Description[ca@valencia]": "Configuració ràpida per a canviar el mode acoblat per a Plasma Mobile",
        "Description[ca]": "Configuració ràpida per a canviar el mode acoblat per al Plasma Mobile",
        "Description[en_GB]": "Quick setting to toggle docked mode for Plasma Mobile",
        "Description[eo]": "Rapida agordo por ŝanĝi aldokigitan reĝimon por Plasma Mobile",
        "Description[es]": "Ajuste rápido para cambiar el modo acoplado para Plasma Mobile",
        "Description[eu]": "Atrakatuta modua txandakatzeko ezarpen azkarra Plasma Mugikorrerako",
        "Description[fi]": "Telakointitilan pika-asetus Plasma Mobileen",
        "Description[fr]": "Configuration rapide pour basculer ou non en mode en dock pour Plasma Mobile",
        "Description[gl]": "Opción rápida de conmutar o modo doca para Plasma Mobile.",
        "Description[hu]": "Gyorsbeállítás a Plasma Mobile dokkolt módjának kapcsolásához",
        "Description[ia]": "Preferentia rapide a commutar modo de bassino (dockd)  per Plasma Mobile",
        "Description[is]": "Flýtistilling til að kveikja/slökkva á tengisniði fyrir Plasma Mobile",
        "Description[it]": "Impostazione rapida per attivare o disattivare la modalità ancorata per Plasma Mobile",
        "Description[ka]": "Plasma Mobile-ის დოკის რეჟიმის პარამეტრის გადართვა",
        "Description[ko]": "Plasma 모바일의 독 모드 전환 빠른 설정",
        "Description[nl]": "Snelle instelling om modus vastgezet om te schakelen voor Plasma Mobile",
        "Description[nn]": "Snøgginnstilling for dokkmodus for Plasma Mobile",
        "Description[pa]": "ਪਲਾਜ਼ਮਾ ਮੋਬਾਈਲ ਲਈ ਡੌਕ ਬਦਲਣ ਢੰਗ ਲਈ ਫ਼ੌਰੀ ਸੈਟਿੰਗ",
        "Description[pl]": "Szybkie ustawienie do przełączania trybu dokowania w Przenośnej Plazmie",
        "Description[sk]": "Rýchle nastavenie prepínania dokovaného režimu pre Plasma Mobile",
        "Description[sl]": "Hitre nastavitve za preklop v dok za Plasma Mobile",
        "Description[tr]": "Plasma Cep için rıhtımlanmış kip aç/kapat tez ayarı",
        "Description[uk]": "Швидке встановлення швартованого режиму для Мобільної Плазми",
        "Description[x-test]": "xxQuick setting to toggle docked mode for Plasma Mobilexx",
        "Description[zh_CN]": "快速设置以切换 Plasma Mobile 的停靠模式",
        "Icon": "preferences-desktop-display-randr",
        "Id": "org.kde.plasma.quicksetting.docked",
        "License": "GPL",
        "Name": "Docked Mode",
        "Name[ca@valencia]": "Mode acoblat",
        "Name[ca]": "Mode acoblat",
        "Name[cs]": "Režim v doku",
        "Name[en_GB]": "Docked Mode",
        "Name[eo]": "Aldokita Reĝimo",
        "Name[es]": "Modo acoplado",
        "Name[eu]": "Atrakatuta modua",
        "Name[fi]": "Telakointitila",
        "Name[fr]": "Mode en dock",
        "Name[gl]": "Modo doca",
        "Name[hu]": "Dokkolt mód",
        "Name[ia]": "Modo de bassino (Docked)",
        "Name[is]": "Tengisnið",
        "Name[it]": "Modalità ancorata",
        "Name[ka]": "დოკის რეჟიმი",
        "Name[ko]": "독 모드",
        "Name[nl]": "Modus vastgezet",
        "Name[nn]": "Dokkmodus",
        "Name[pa]": "ਡੌਕ ਕਰਨ ਢੰਗ",
        "Name[pl]": "Tryb dokowania",
        "Name[sk]": "Dokovaný režim",
        "Name[sl]": "Način v doku",
        "Name[tr]": "Rıhtımlanmış Kip",
        "Name[uk]": "Швартований режим",
        "Name[x-test]": "xxDocked Modexx",
        "Name[zh_CN]": "停靠模式",
        "Name[zh_TW]": "基座模式",
        "Website": "https://kde.org"
    }
}
